{
  "main": {
    "id": "5c5e6edcc3e3b4e5",
    "type": "split",
    "children": [
      {
        "id": "27e809faf39dae06",
        "type": "tabs",
        "children": [
          {
            "id": "13c1340fca97aec5",
            "type": "leaf",
            "state": {
              "type": "markdown",
              "state": {
                "file": "content/svin/morbradboffer.md",
                "mode": "source",
                "source": true
              },
              "icon": "lucide-file",
              "title": "morbradboffer"
            }
          }
        ]
      }
    ],
    "direction": "vertical"
  },
  "left": {
    "id": "586c1ffc847e2333",
    "type": "split",
    "children": [
      {
        "id": "67731705ca48776a",
        "type": "tabs",
        "children": [
          {
            "id": "f6e322d1e0447873",
            "type": "leaf",
            "state": {
              "type": "file-explorer",
              "state": {
                "sortOrder": "alphabetical"
              },
              "icon": "lucide-folder-closed",
              "title": "Files"
            }
          },
          {
            "id": "224c78c260993a6a",
            "type": "leaf",
            "state": {
              "type": "bookmarks",
              "state": {},
              "icon": "lucide-bookmark",
              "title": "Bookmarks"
            }
          },
          {
            "id": "c0ba88984fc039e3",
            "type": "leaf",
            "state": {
              "type": "empty",
              "state": {},
              "icon": "lucide-file",
              "title": "New tab"
            }
          },
          {
            "id": "0c8dd1deecb94e87",
            "type": "leaf",
            "state": {
              "type": "search",
              "state": {
                "query": "",
                "matchingCase": false,
                "explainSearch": false,
                "collapseAll": false,
                "extraContext": true,
                "sortOrder": "alphabetical"
              },
              "icon": "lucide-search",
              "title": "Search"
            }
          }
        ]
      }
    ],
    "direction": "horizontal",
    "width": 300
  },
  "right": {
    "id": "8f8d3570c6b02825",
    "type": "split",
    "children": [
      {
        "id": "031e72dcbf0abc4b",
        "type": "tabs",
        "children": [
          {
            "id": "a7a745d2a13de117",
            "type": "leaf",
            "state": {
              "type": "backlink",
              "state": {
                "file": "Useful Linux Commands/Deleting.md",
                "collapseAll": false,
                "extraContext": false,
                "sortOrder": "alphabetical",
                "showSearch": false,
                "searchQuery": "",
                "backlinkCollapsed": false,
                "unlinkedCollapsed": true
              },
              "icon": "links-coming-in",
              "title": "Backlinks for Deleting"
            }
          },
          {
            "id": "a5773c2c202f61a6",
            "type": "leaf",
            "state": {
              "type": "outgoing-link",
              "state": {
                "file": "Useful Linux Commands/Deleting.md",
                "linksCollapsed": false,
                "unlinkedCollapsed": true
              },
              "icon": "links-going-out",
              "title": "Outgoing links from Deleting"
            }
          },
          {
            "id": "cf83bf49b1736d03",
            "type": "leaf",
            "state": {
              "type": "tag",
              "state": {
                "sortOrder": "frequency",
                "useHierarchy": true
              },
              "icon": "lucide-tags",
              "title": "Tags"
            }
          },
          {
            "id": "eed7a4ec20b93857",
            "type": "leaf",
            "state": {
              "type": "outline",
              "state": {
                "file": "index.md"
              },
              "icon": "lucide-list",
              "title": "Outline of index"
            }
          },
          {
            "id": "b8b3598e3ee768b4",
            "type": "leaf",
            "state": {
              "type": "git-view",
              "state": {},
              "icon": "git-pull-request",
              "title": "Source Control"
            }
          }
        ],
        "currentTab": 4
      }
    ],
    "direction": "horizontal",
    "width": 286.5
  },
  "left-ribbon": {
    "hiddenItems": {
      "obsidian-diagrams-net:Insert new diagram": false,
      "switcher:Open quick switcher": false,
      "graph:Open graph view": false,
      "canvas:Create new canvas": false,
      "daily-notes:Open today's daily note": false,
      "templates:Insert template": false,
      "command-palette:Open command palette": false,
      "obsidian-git:Open Git source control": false,
      "omnisearch:Omnisearch": false,
      "obsidian42-brat:BRAT": false,
      "ai-tagger:Generate tags!": false,
      "obsidian-projects:Open projects": false
    }
  },
  "active": "13c1340fca97aec5",
  "lastOpenFiles": [
    "content/tilbehor/brune-kartofler.md",
    "content/svin/morbradboffer.md",
    "content/tilbehor/blode-og-karamelliserede-log.md",
    "content/svin/italienske-frikadeller-med-flodetomatsauce-og-pasta.md",
    "content/svin/pasta-og-svinemorbrad-i-rodvinssauce.md",
    "_quarto.yml",
    "content/svin/indbagte_poelser.md",
    "content/tilbehor/rodkal.md",
    "content/Vildt/langtidsstegt-hel-and.md",
    "content/Dessert/risalamande.md",
    "content/Noter/julens_timing.md",
    "content/Dessert/Rice-a-la-mande-for.md",
    "content/Dessert/rabarberkokostaerte.md",
    "content/Dessert/Rice-a-la-mande-for-web.jpg",
    "content/Kylling/Kylling-i-karry-med-æbler.md",
    "content/Kylling/Kylling i karry.jpg",
    "content/Kylling/jans-tarteletter.md",
    "content/Kylling/jans-kylling-i-karry.md",
    "content/Kylling/quiche-lorraine.md",
    "content/Dessert/risengrød_files/mediabag",
    "content/Dessert/risengrød_files",
    "content/Dessert/risalamande_files/libs/bootstrap/bootstrap-icons.woff",
    "content/Dessert/risalamande_files/libs/bootstrap/bootstrap-b7910f268a8632ea27445fed148bc5a6.min.css",
    "content/Dessert/risalamande_files/libs/bootstrap/bootstrap-icons.css",
    "content/Dessert/risalamande_files/libs/bootstrap/bootstrap.min.js",
    "content/Dessert/risalamande_files/libs/bootstrap",
    "content/Dessert/risalamande_files/libs/quarto-html/quarto-syntax-highlighting-e26003cea8cd680ca0c55a263523d882.css",
    "content/Dessert/risalamande_files/libs/quarto-html/tippy.css",
    "index.md",
    "content/Dessert/risengrød.md",
    "content/Dessert/risengrød.jpg",
    "content/Dessert/krydderkage.md",
    "content/Dessert/Kanelaeblekage.md",
    "content/Dessert/pandekager.md",
    "Spaceomics/update numbers in paper.md",
    "Spaceomics/Make heatmap with selected features incl. name for those IDed.md",
    "Spaceomics/look at boxplot of cortisol.md",
    "Spaceomics/re-create flight overview to make it random.md",
    "Spaceomics/make sure we have new boxplots with correct stats groups.md",
    "_book/work/statistics/nestedCV_small.png",
    "_book/work/statistics/nestedCV.png",
    "_book/tests/Diagram.svg",
    "_book/gitbook/fonts/fontawesome/fontawesome-webfont.svg",
    "_book/gitbook/images/apple-touch-icon-precomposed-152.png",
    "node_modules/highlight.js/styles/brown-papersq.png",
    "node_modules/highlight.js/styles/pojoaque.jpg",
    "Untitled.canvas"
  ]
}